HDL Visualizations
…
## # A tibble: 3 × 3
##   grade     n percent
##   <chr> <int>   <dbl>
## 1 A     22343   89.3 
## 2 B      2047    8.18
## 3 C       636    2.54

#violation code count
restaurant_data %>%
  count(violation_code, sort = TRUE)

## # A tibble: 60 × 2
##    violation_code     n
##    <chr>          <int>
##  1 10F             5891
##  2 06C             1952
##  3 06D             1944
##  4 10B             1834
##  5 02G             1527
##  6 02B             1478
##  7 08A             1356
##  8 04L              738
##  9 10G              702
## 10 04A              614
## # ℹ 50 more rows
…
## # A tibble: 3 × 3
##   grade inspections unique_violations
##   <chr>       <int>             <int>
## 1 A           22343                58
## 2 B            2047                47
## 3 C             636                46

#most common violation by grade
restaurant_data %>%
  group_by(grade, violation_code, violation_description) %>%
  summarise(count = n(), .groups = "drop") %>%
  arrange(grade, desc(count))

## # A tibble: 219 × 4
##    grade violation_code violation_description                              count
##    <chr> <chr>          <chr>                                              <int>
##  1 A     10F            Non-food contact surface or equipment made of una…  5582
##  2 A     06D            Food contact surface not properly washed, rinsed …  1802
##  3 A     06C            Food, supplies, or equipment not protected from p…  1749
##  4 A     10B            Anti-siphonage or back-flow prevention device not…  1712
##  5 A     02G            Cold TCS food item held above 41 °F; smoked or pr…  1300
##  6 A     02B            Hot TCS food item not held at or above 140 °F.      1247
##  7 A     08A            Establishment is not free of harborage or conditi…   997
##  8 A     10G            Dishwashing and ware washing: Cleaning and saniti…   619
##  9 A     04L            Evidence of mice or live mice in establishment's …   528
## 10 A     06F            Wiping cloths not stored clean and dry, or in a s…   516
## # ℹ 209 more rows

#grades w/violation code
restaurant_data %>%
  count(grade, violation_code) %>%
  arrange(grade, desc(n))

## # A tibble: 151 × 3
##    grade violation_code     n
##    <chr> <chr>          <int>
##  1 A     10F             5650
##  2 A     06D             1802
##  3 A     06C             1780
##  4 A     10B             1723
##  5 A     02G             1307
##  6 A     02B             1255
##  7 A     08A             1025
##  8 A     10G              636
##  9 A     04L              538
## 10 A     06F              520
## # ℹ 141 more rows
…
